…
    ## `summarise()` has grouped output by 'Category'. You can override using the
    ## `.groups` argument.

``` r
summary_data
```

    ## # A tibble: 48 × 6
    ## # Groups:   Category [11]
    ##    Category                     Gear                    median count  mean stdev
    ##    <fct>                        <chr>                    <dbl> <int> <dbl> <dbl>
    ##  1 Chemical and Blast           Blast/explosives/dynam…      5    69  4.83 0.766
    ##  2 Chemical and Blast           Chemicals/poison/synth…      5    68  4.79 0.682
    ##  3 Dredges                      Hand dredges                 3    55  3.04 1.36 
    ##  4 Dredges                      Mechanized dredges           5    59  4.37 0.908
    ##  5 Dredges                      Towed dredges                5    66  4.33 0.982
    ##  6 Gillnets and entangling nets Combined gillnets-tram…      4    52  3.23 1.44 
    ##  7 Gillnets and entangling nets Drift gillnets               4    71  3.79 1.37 
    ##  8 Gillnets and entangling nets Encircling gillnets          3    65  3.23 1.38 
    ##  9 Gillnets and entangling nets Fixed gillnets (on sta…      3    63  3.19 1.28 
    ## 10 Gillnets and entangling nets Set gillnets (anchored)      3    70  3.26 1.27 
    ## # ℹ 38 more rows
…
